^C:\MyData\VS 2022\STEM Games 2023\stem-2023-geyoten\01_rtp\STEM Games 2023.vcxproj
C:\MyData\VS 2022\STEM Games 2023\stem-2023-geyoten\01_rtp\x64\Release\STEM Games 2023.ipdb
C:\MyData\VS 2022\STEM Games 2023\stem-2023-geyoten\01_rtp\x64\Release\STEM Games 2023.iobj
