^C:\MYDATA\VS 2022\STEM GAMES 2023\STEM-2023-GEYOTEN\01_RTP\X64\RELEASE\DAY2_1.OBJ|C:\MYDATA\VS 2022\STEM GAMES 2023\STEM-2023-GEYOTEN\01_RTP\X64\RELEASE\NEURALNETWORK.OBJ
/OUT:"C:\MYDATA\VS 2022\STEM GAMES 2023\STEM-2023-GEYOTEN\01_RTP\X64\RELEASE\STEM GAMES 2023.EXE" /NOLOGO KERNEL32.LIB USER32.LIB GDI32.LIB WINSPOOL.LIB COMDLG32.LIB ADVAPI32.LIB SHELL32.LIB OLE32.LIB OLEAUT32.LIB UUID.LIB ODBC32.LIB ODBCCP32.LIB /MANIFEST /MANIFESTUAC:"level='asInvoker' uiAccess='false'" /manifest:embed /DEBUG /PDB:"C:\MYDATA\VS 2022\STEM GAMES 2023\STEM-2023-GEYOTEN\01_RTP\X64\RELEASE\STEM GAMES 2023.PDB" /SUBSYSTEM:CONSOLE /OPT:REF /OPT:ICF /LTCG:incremental /LTCGOUT:"X64\RELEASE\STEM GAMES 2023.IOBJ" /TLBID:1 /DYNAMICBASE /NXCOMPAT /IMPLIB:"C:\MYDATA\VS 2022\STEM GAMES 2023\STEM-2023-GEYOTEN\01_RTP\X64\RELEASE\STEM GAMES 2023.LIB" /MACHINE:X64 X64\RELEASE\DAY2_1.OBJ
X64\RELEASE\NEURALNETWORK.OBJ
